Untitled
…
C) Main Analysis

C.1) Are hurricanes becoming more frequent?

get all the hurricanes from the data. -> group by SID, and filter out any unique storm SID such that its max(WMO_WIND) doesnt exceed 64 knots.

hurricanes = data %>%
  drop_na(WMO_WIND) %>%
  group_by(SID) %>%
  filter(!any(max(WMO_WIND) <= 64))

hurricanes

## # A tibble: 13,449 x 17
## # Groups:   SID [331]
##    SID       SEASON NUMBER BASIN SUBBASIN NAME  ISO_TIME            NATURE   LAT
##    <chr>      <int>  <int> <chr> <chr>    <chr> <dttm>              <chr>  <dbl>
##  1 1970138N~   1970     43 NA    CS       ALMA  1970-05-17 18:00:00 TS      11.5
##  2 1970138N~   1970     43 NA    CS       ALMA  1970-05-18 00:00:00 TS      11.7
##  3 1970138N~   1970     43 NA    CS       ALMA  1970-05-18 06:00:00 TS      12.1
##  4 1970138N~   1970     43 NA    CS       ALMA  1970-05-18 12:00:00 TS      12.3
##  5 1970138N~   1970     43 NA    CS       ALMA  1970-05-18 18:00:00 TS      12.5
##  6 1970138N~   1970     43 NA    CS       ALMA  1970-05-19 00:00:00 TS      13  
##  7 1970138N~   1970     43 NA    CS       ALMA  1970-05-19 06:00:00 TS      13.5
##  8 1970138N~   1970     43 NA    CS       ALMA  1970-05-19 12:00:00 TS      14  
##  9 1970138N~   1970     43 NA    CS       ALMA  1970-05-19 18:00:00 TS      14.5
## 10 1970138N~   1970     43 NA    CS       ALMA  1970-05-20 00:00:00 TS      15.5
## # ... with 13,439 more rows, and 8 more variables: LON <dbl>, WMO_WIND <int>,
## #   WMO_PRES <int>, WMO_AGENCY <chr>, TRACK_TYPE <chr>, DIST2LAND <int>,
## #   LANDFALL <int>, MONTH <dbl>

raw_year_count = hurricanes %>%
  group_by(SEASON) %>%
  summarise(count = n_distinct(SID))
raw_year_count

## # A tibble: 51 x 2
##    SEASON count
##     <int> <int>
##  1   1970     5
##  2   1971     6
##  3   1972     3
##  4   1973     4
##  5   1974     4
##  6   1975     6
##  7   1976     6
##  8   1977     5
##  9   1978     5
## 10   1979     6
## # ... with 41 more rows
…
C.2) Are hurricanes getting stronger?

Firstly, I need to define what strong means. Here in the univariate analysis, I took WMO_WIND as a way to measure the strength.

As a next step, I cleaned the data by dropping NA value in WMO_WIND and take average of each specific hurricane. I use hurricane data set defined in the question above.

hurricane_mean = hurricanes %>%
  drop_na(WMO_WIND) %>%
  group_by(SID, SEASON) %>%
  summarise_at(vars(WMO_WIND), list(WMO_WIND_mean = mean))

hurricane_mean

## # A tibble: 331 x 3
## # Groups:   SID [331]
##    SID           SEASON WMO_WIND_mean
##    <chr>          <int>         <dbl>
##  1 1970138N12281   1970          30.8
##  2 1970212N18278   1970          54.4
##  3 1970252N15277   1970          51.2
##  4 1970286N25292   1970          52.8
##  5 1970294N34312   1970          49.8
##  6 1971216N31297   1971          39.4
##  7 1971223N27280   1971          42.9
##  8 1971247N28273   1971          40  
##  9 1971249N11302   1971          52.1
## 10 1971249N26289   1971          59.0
## # ... with 321 more rows

Before we move on, I will present max and mean strength for each year and take them for different interpretations, since change in max and change in mean strength might represent different meanings.

hurricane_max_mean_by_year =
  hurricane_mean %>%
  group_by(SEASON) %>%
  summarise(WIND_max = max(WMO_WIND_mean), WIND_mean = mean(WMO_WIND_mean))

hurricane_max_mean_by_year

## # A tibble: 51 x 3
##    SEASON WIND_max WIND_mean
##     <int>    <dbl>     <dbl>
##  1   1970     54.4      47.8
##  2   1971     59.0      47.5
##  3   1972     54.9      47.5
##  4   1973     60.8      56.1
##  5   1974     67.5      57.1
##  6   1975     67.1      51.7
##  7   1976     68.1      58.3
##  8   1977     72        49.8
##  9   1978     79.6      56.1
## 10   1979     82.8      50.7
## # ... with 41 more rows
…
At each hurricanes first occurence, the wind stength didnt reach category-5 strength. So the claim is false.

C.4) Animated Map

Make an animated map of storms in 2019, to display their paths (or trajectories).

Initialize a table containing all hurricanes occurred in 2019 (Dropped all NA values in WMO_WIND as I need it for the size description.)

hurricanes_2019 = hurricanes %>%
  filter(SEASON == 2019)

hurricanes_2019

## # A tibble: 267 x 17
## # Groups:   SID [7]
##    SID       SEASON NUMBER BASIN SUBBASIN NAME  ISO_TIME            NATURE   LAT
##    <chr>      <int>  <int> <chr> <chr>    <chr> <dttm>              <chr>  <dbl>
##  1 2019192N~   2019     33 NA    GM       BARRY 2019-07-10 12:00:00 NR      28.5
##  2 2019192N~   2019     33 NA    GM       BARRY 2019-07-10 18:00:00 NR      28.1
##  3 2019192N~   2019     33 NA    GM       BARRY 2019-07-11 00:00:00 TS      27.8
##  4 2019192N~   2019     33 NA    GM       BARRY 2019-07-11 06:00:00 TS      27.7
##  5 2019192N~   2019     33 NA    GM       BARRY 2019-07-11 12:00:00 TS      27.7
##  6 2019192N~   2019     33 NA    GM       BARRY 2019-07-11 18:00:00 TS      27.7
##  7 2019192N~   2019     33 NA    GM       BARRY 2019-07-12 00:00:00 TS      27.8
##  8 2019192N~   2019     33 NA    GM       BARRY 2019-07-12 06:00:00 TS      27.9
##  9 2019192N~   2019     33 NA    GM       BARRY 2019-07-12 12:00:00 TS      28.1
## 10 2019192N~   2019     33 NA    GM       BARRY 2019-07-12 18:00:00 TS      28.4
## # ... with 257 more rows, and 8 more variables: LON <dbl>, WMO_WIND <int>,
## #   WMO_PRES <int>, WMO_AGENCY <chr>, TRACK_TYPE <chr>, DIST2LAND <int>,
## #   LANDFALL <int>, MONTH <dbl>
…
